\relax 
\catcode `"\active 
\catcode `<\active 
\catcode `>\active 
\@nameuse{es@quoting}
\babel@aux{spanish}{}
\babel@aux{spanish}{}
\newlabel{LastPage}{{}{3}}
\xdef\lastpage@lastpage{3}
\gdef\lastpage@lastpageHy{}
