\relax 
\catcode `"\active 
\catcode `<\active 
\catcode `>\active 
\@nameuse{es@quoting}
\babel@aux{spanish}{}
\babel@aux{spanish}{}
\newlabel{LastPage}{{}{2}}
\xdef\lastpage@lastpage{2}
\gdef\lastpage@lastpageHy{}
